<?xml version="1.0" encoding="UTF-8"?>
<!-- Generated by org.testng.reporters.JUnitReportReporter -->
<testsuite skipped="0" hostname="Deepali-AK" name="com.tests.TC01_AllEmpoyeesGetTest" tests="5" failures="0" timestamp="2020-07-06T18:06:03 IST" time="6.566" errors="0">
  <testcase name="statusCodeTest" time="2.095" classname="com.tests.TC01_AllEmpoyeesGetTest"/>
  <system-out>
Base URI :https://reqres.in/api/employees HTTP response created Status Code :200  </system-out>
  <testcase name="responseTest" time="1.337" classname="com.tests.TC01_AllEmpoyeesGetTest"/>
  <system-out>
Base URI :https://reqres.in/api/employees HTTP response created Response :{"page":1,"per_page":6,"total":12,"total_pages":2,"data":[{"id":1,"name":"cerulean","year":2000,"color":"#98B2D1","pantone_value":"15-4020"},{"id":2,"name":"fuchsia rose","year":2001,"color":"#C74375","pantone_value":"17-2031"},{"id":3,"name":"true red","year":2002,"color":"#BF1932","pantone_value":"19-1664"},{"id":4,"name":"aqua sky","year":2003,"color":"#7BC4C4","pantone_value":"14-4811"},{"id":5,"name":"tigerlily","year":2004,"color":"#E2583E","pantone_value":"17-1456"},{"id":6,"name":"blue turquoise","year":2005,"color":"#53B0AE","pantone_value":"15-5217"}],"ad":{"company":"StatusCode Weekly","url":"http://statuscode.org/","text":"A weekly newsletter focusing on software development, infrastructure, the server, performance, and the stack end of things."}}  </system-out>
  <testcase name="statusLineTest" time="0.985" classname="com.tests.TC01_AllEmpoyeesGetTest"/>
  <system-out>
Base URI :https://reqres.in/api/employees HTTP response created Status Line :HTTP/1.1 200 OK  </system-out>
  <testcase name="contentTypeTest" time="1.185" classname="com.tests.TC01_AllEmpoyeesGetTest"/>
  <system-out>
Base URI :https://reqres.in/api/employees HTTP response created Content Type :application/json; charset=utf-8  </system-out>
  <testcase name="headersTest" time="0.964" classname="com.tests.TC01_AllEmpoyeesGetTest"/>
  <system-out>
Base URI :https://reqres.in/api/employees HTTP response created Headers :Date=Mon, 06 Jul 2020 12:36:02 GMT
Content-Type=application/json; charset=utf-8
Transfer-Encoding=chunked
Connection=keep-alive
Set-Cookie=__cfduid=dc91dead960db0165a2a7087e8d5a3ae01594038962; expires=Wed, 05-Aug-20 12:36:02 GMT; path=/; domain=.reqres.in; HttpOnly; SameSite=Lax; Secure
X-Powered-By=Express
Access-Control-Allow-Origin=*
Etag=W/"301-ijGNEim/mAI7LpbQIXyQc2bjt+k"
Via=1.1 vegur
Cache-Control=max-age=14400
CF-Cache-Status=HIT
Age=4
cf-request-id=03c5b962ac0000e64819bec200000001
Expect-CT=max-age=604800, report-uri="https://report-uri.cloudflare.com/cdn-cgi/beacon/expect-ct"
Vary=Accept-Encoding
Server=cloudflare
CF-RAY=5ae95e7dec67e648-LHR
Content-Encoding=gzip  </system-out>
</testsuite> <!-- com.tests.TC01_AllEmpoyeesGetTest -->
